2017-10-23 01:58:18|ERROR|Login.userLogin1|PDOException: Duplicate entry 'cmaogeg' for key 'user_login' in /data/wwwroot/www.k8531.com_2/web_2/api/PhalApi/NotORM/NotORM/Result.php:240
Stack trace:
#0 /data/wwwroot/www.k8531.com_2/web_2/api/PhalApi/NotORM/NotORM/Result.php(317): NotORM_Result->query('INSERT INTO cmf...', Array)
#1 /data/wwwroot/www.k8531.com_2/web_2/api/PhalApi/NotORM/NotORM/Result.php(334): NotORM_Result->insert_multi(Array)
#2 /data/wwwroot/www.k8531.com_2/web_2/api/Appapi/Model/Login.php(78): NotORM_Result->insert(Array)
#3 /data/wwwroot/www.k8531.com_2/web_2/api/Appapi/Domain/Login.php(18): Model_Login->userLogin1('cmaogeg', '894cad240b119c5...', 4, 0, '825384ba180c36d...')
#4 /data/wwwroot/www.k8531.com_2/web_2/api/Appapi/Api/Login.php(134): Domain_Login->userLogin1('cmaogeg', '894cad240b119c5...', 4, 0, '825384ba180c36d...')
#5 /data/wwwroot/www.k8531.com_2/web_2/api/PhalApi/PhalApi.php(57): Api_Login->userLogin1()
#6 /data/wwwroot/www.k8531.com_2/web_2/api/public/index.php(15): PhalApi->response()
#7 {main}
2017-10-23 06:59:46|ERROR|Login.userLogin1|PDOException: Duplicate entry 'c05611' for key 'user_login' in /data/wwwroot/www.k8531.com_2/web_2/api/PhalApi/NotORM/NotORM/Result.php:240
Stack trace:
#0 /data/wwwroot/www.k8531.com_2/web_2/api/PhalApi/NotORM/NotORM/Result.php(317): NotORM_Result->query('INSERT INTO cmf...', Array)
#1 /data/wwwroot/www.k8531.com_2/web_2/api/PhalApi/NotORM/NotORM/Result.php(334): NotORM_Result->insert_multi(Array)
#2 /data/wwwroot/www.k8531.com_2/web_2/api/Appapi/Model/Login.php(78): NotORM_Result->insert(Array)
#3 /data/wwwroot/www.k8531.com_2/web_2/api/Appapi/Domain/Login.php(18): Model_Login->userLogin1('c05611', '557b7dfa3daa4a0...', 5, 0, 'bf024fb8895f7c8...')
#4 /data/wwwroot/www.k8531.com_2/web_2/api/Appapi/Api/Login.php(134): Domain_Login->userLogin1('c05611', '557b7dfa3daa4a0...', 5, 0, 'bf024fb8895f7c8...')
#5 /data/wwwroot/www.k8531.com_2/web_2/api/PhalApi/PhalApi.php(57): Api_Login->userLogin1()
#6 /data/wwwroot/www.k8531.com_2/web_2/api/public/index.php(15): PhalApi->response()
#7 {main}
2017-10-23 15:29:51|ERROR|Login.userLogin1|PDOException: Duplicate entry 'c13082180027' for key 'user_login' in /data/wwwroot/www.k8531.com_2/web_2/api/PhalApi/NotORM/NotORM/Result.php:240
Stack trace:
#0 /data/wwwroot/www.k8531.com_2/web_2/api/PhalApi/NotORM/NotORM/Result.php(317): NotORM_Result->query('INSERT INTO cmf...', Array)
#1 /data/wwwroot/www.k8531.com_2/web_2/api/PhalApi/NotORM/NotORM/Result.php(334): NotORM_Result->insert_multi(Array)
#2 /data/wwwroot/www.k8531.com_2/web_2/api/Appapi/Model/Login.php(78): NotORM_Result->insert(Array)
#3 /data/wwwroot/www.k8531.com_2/web_2/api/Appapi/Domain/Login.php(18): Model_Login->userLogin1('c13082180027', '0c9f83c3df77fab...', 1, 0, '3af03a36025c241...')
#4 /data/wwwroot/www.k8531.com_2/web_2/api/Appapi/Api/Login.php(134): Domain_Login->userLogin1('c13082180027', '0c9f83c3df77fab...', 1, 0, '3af03a36025c241...')
#5 /data/wwwroot/www.k8531.com_2/web_2/api/PhalApi/PhalApi.php(57): Api_Login->userLogin1()
#6 /data/wwwroot/www.k8531.com_2/web_2/api/public/index.php(15): PhalApi->response()
#7 {main}
2017-10-23 15:29:57|ERROR|Login.userLogin1|PDOException: Duplicate entry 'c13082180027' for key 'user_login' in /data/wwwroot/www.k8531.com_2/web_2/api/PhalApi/NotORM/NotORM/Result.php:240
Stack trace:
#0 /data/wwwroot/www.k8531.com_2/web_2/api/PhalApi/NotORM/NotORM/Result.php(317): NotORM_Result->query('INSERT INTO cmf...', Array)
#1 /data/wwwroot/www.k8531.com_2/web_2/api/PhalApi/NotORM/NotORM/Result.php(334): NotORM_Result->insert_multi(Array)
#2 /data/wwwroot/www.k8531.com_2/web_2/api/Appapi/Model/Login.php(78): NotORM_Result->insert(Array)
#3 /data/wwwroot/www.k8531.com_2/web_2/api/Appapi/Domain/Login.php(18): Model_Login->userLogin1('c13082180027', '0c9f83c3df77fab...', 1, 0, '3af03a36025c241...')
#4 /data/wwwroot/www.k8531.com_2/web_2/api/Appapi/Api/Login.php(134): Domain_Login->userLogin1('c13082180027', '0c9f83c3df77fab...', 1, 0, '3af03a36025c241...')
#5 /data/wwwroot/www.k8531.com_2/web_2/api/PhalApi/PhalApi.php(57): Api_Login->userLogin1()
#6 /data/wwwroot/www.k8531.com_2/web_2/api/public/index.php(15): PhalApi->response()
#7 {main}
2017-10-23 15:34:08|ERROR|Login.userLogin1|PDOException: Duplicate entry 'c13082180027' for key 'user_login' in /data/wwwroot/www.k8531.com_2/web_2/api/PhalApi/NotORM/NotORM/Result.php:240
Stack trace:
#0 /data/wwwroot/www.k8531.com_2/web_2/api/PhalApi/NotORM/NotORM/Result.php(317): NotORM_Result->query('INSERT INTO cmf...', Array)
#1 /data/wwwroot/www.k8531.com_2/web_2/api/PhalApi/NotORM/NotORM/Result.php(334): NotORM_Result->insert_multi(Array)
#2 /data/wwwroot/www.k8531.com_2/web_2/api/Appapi/Model/Login.php(78): NotORM_Result->insert(Array)
#3 /data/wwwroot/www.k8531.com_2/web_2/api/Appapi/Domain/Login.php(18): Model_Login->userLogin1('c13082180027', '0c9f83c3df77fab...', 1, 0, '3af03a36025c241...')
#4 /data/wwwroot/www.k8531.com_2/web_2/api/Appapi/Api/Login.php(134): Domain_Login->userLogin1('c13082180027', '0c9f83c3df77fab...', 1, 0, '3af03a36025c241...')
#5 /data/wwwroot/www.k8531.com_2/web_2/api/PhalApi/PhalApi.php(57): Api_Login->userLogin1()
#6 /data/wwwroot/www.k8531.com_2/web_2/api/public/index.php(15): PhalApi->response()
#7 {main}
2017-10-23 15:36:35|ERROR|Login.userLogin1|PDOException: Duplicate entry 'c13082180027' for key 'user_login' in /data/wwwroot/www.k8531.com_2/web_2/api/PhalApi/NotORM/NotORM/Result.php:240
Stack trace:
#0 /data/wwwroot/www.k8531.com_2/web_2/api/PhalApi/NotORM/NotORM/Result.php(317): NotORM_Result->query('INSERT INTO cmf...', Array)
#1 /data/wwwroot/www.k8531.com_2/web_2/api/PhalApi/NotORM/NotORM/Result.php(334): NotORM_Result->insert_multi(Array)
#2 /data/wwwroot/www.k8531.com_2/web_2/api/Appapi/Model/Login.php(78): NotORM_Result->insert(Array)
#3 /data/wwwroot/www.k8531.com_2/web_2/api/Appapi/Domain/Login.php(18): Model_Login->userLogin1('c13082180027', '0c9f83c3df77fab...', 1, 0, '3af03a36025c241...')
#4 /data/wwwroot/www.k8531.com_2/web_2/api/Appapi/Api/Login.php(134): Domain_Login->userLogin1('c13082180027', '0c9f83c3df77fab...', 1, 0, '3af03a36025c241...')
#5 /data/wwwroot/www.k8531.com_2/web_2/api/PhalApi/PhalApi.php(57): Api_Login->userLogin1()
#6 /data/wwwroot/www.k8531.com_2/web_2/api/public/index.php(15): PhalApi->response()
#7 {main}
2017-10-23 15:36:38|ERROR|Login.userLogin1|PDOException: Duplicate entry 'c13082180027' for key 'user_login' in /data/wwwroot/www.k8531.com_2/web_2/api/PhalApi/NotORM/NotORM/Result.php:240
Stack trace:
#0 /data/wwwroot/www.k8531.com_2/web_2/api/PhalApi/NotORM/NotORM/Result.php(317): NotORM_Result->query('INSERT INTO cmf...', Array)
#1 /data/wwwroot/www.k8531.com_2/web_2/api/PhalApi/NotORM/NotORM/Result.php(334): NotORM_Result->insert_multi(Array)
#2 /data/wwwroot/www.k8531.com_2/web_2/api/Appapi/Model/Login.php(78): NotORM_Result->insert(Array)
#3 /data/wwwroot/www.k8531.com_2/web_2/api/Appapi/Domain/Login.php(18): Model_Login->userLogin1('c13082180027', '0c9f83c3df77fab...', 1, 0, '3af03a36025c241...')
#4 /data/wwwroot/www.k8531.com_2/web_2/api/Appapi/Api/Login.php(134): Domain_Login->userLogin1('c13082180027', '0c9f83c3df77fab...', 1, 0, '3af03a36025c241...')
#5 /data/wwwroot/www.k8531.com_2/web_2/api/PhalApi/PhalApi.php(57): Api_Login->userLogin1()
#6 /data/wwwroot/www.k8531.com_2/web_2/api/public/index.php(15): PhalApi->response()
#7 {main}
2017-10-23 15:47:25|ERROR|Login.userLogin1|PDOException: Duplicate entry 'c13082180027' for key 'user_login' in /data/wwwroot/www.k8531.com_2/web_2/api/PhalApi/NotORM/NotORM/Result.php:240
Stack trace:
#0 /data/wwwroot/www.k8531.com_2/web_2/api/PhalApi/NotORM/NotORM/Result.php(317): NotORM_Result->query('INSERT INTO cmf...', Array)
#1 /data/wwwroot/www.k8531.com_2/web_2/api/PhalApi/NotORM/NotORM/Result.php(334): NotORM_Result->insert_multi(Array)
#2 /data/wwwroot/www.k8531.com_2/web_2/api/Appapi/Model/Login.php(78): NotORM_Result->insert(Array)
#3 /data/wwwroot/www.k8531.com_2/web_2/api/Appapi/Domain/Login.php(18): Model_Login->userLogin1('c13082180027', '0c9f83c3df77fab...', 1, 0, '3af03a36025c241...')
#4 /data/wwwroot/www.k8531.com_2/web_2/api/Appapi/Api/Login.php(134): Domain_Login->userLogin1('c13082180027', '0c9f83c3df77fab...', 1, 0, '3af03a36025c241...')
#5 /data/wwwroot/www.k8531.com_2/web_2/api/PhalApi/PhalApi.php(57): Api_Login->userLogin1()
#6 /data/wwwroot/www.k8531.com_2/web_2/api/public/index.php(15): PhalApi->response()
#7 {main}
2017-10-23 15:47:37|ERROR|Login.userLogin1|PDOException: Duplicate entry 'c13082180027' for key 'user_login' in /data/wwwroot/www.k8531.com_2/web_2/api/PhalApi/NotORM/NotORM/Result.php:240
Stack trace:
#0 /data/wwwroot/www.k8531.com_2/web_2/api/PhalApi/NotORM/NotORM/Result.php(317): NotORM_Result->query('INSERT INTO cmf...', Array)
#1 /data/wwwroot/www.k8531.com_2/web_2/api/PhalApi/NotORM/NotORM/Result.php(334): NotORM_Result->insert_multi(Array)
#2 /data/wwwroot/www.k8531.com_2/web_2/api/Appapi/Model/Login.php(78): NotORM_Result->insert(Array)
#3 /data/wwwroot/www.k8531.com_2/web_2/api/Appapi/Domain/Login.php(18): Model_Login->userLogin1('c13082180027', '0c9f83c3df77fab...', 1, 0, '3af03a36025c241...')
#4 /data/wwwroot/www.k8531.com_2/web_2/api/Appapi/Api/Login.php(134): Domain_Login->userLogin1('c13082180027', '0c9f83c3df77fab...', 1, 0, '3af03a36025c241...')
#5 /data/wwwroot/www.k8531.com_2/web_2/api/PhalApi/PhalApi.php(57): Api_Login->userLogin1()
#6 /data/wwwroot/www.k8531.com_2/web_2/api/public/index.php(15): PhalApi->response()
#7 {main}
2017-10-23 16:33:22|ERROR|Login.userLogin1|PDOException: Duplicate entry 'cmaogeg' for key 'user_login' in /data/wwwroot/www.k8531.com_2/web_2/api/PhalApi/NotORM/NotORM/Result.php:240
Stack trace:
#0 /data/wwwroot/www.k8531.com_2/web_2/api/PhalApi/NotORM/NotORM/Result.php(317): NotORM_Result->query('INSERT INTO cmf...', Array)
#1 /data/wwwroot/www.k8531.com_2/web_2/api/PhalApi/NotORM/NotORM/Result.php(334): NotORM_Result->insert_multi(Array)
#2 /data/wwwroot/www.k8531.com_2/web_2/api/Appapi/Model/Login.php(78): NotORM_Result->insert(Array)
#3 /data/wwwroot/www.k8531.com_2/web_2/api/Appapi/Domain/Login.php(18): Model_Login->userLogin1('cmaogeg', '894cad240b119c5...', 4, 0, '825384ba180c36d...')
#4 /data/wwwroot/www.k8531.com_2/web_2/api/Appapi/Api/Login.php(134): Domain_Login->userLogin1('cmaogeg', '894cad240b119c5...', 4, 0, '825384ba180c36d...')
#5 /data/wwwroot/www.k8531.com_2/web_2/api/PhalApi/PhalApi.php(57): Api_Login->userLogin1()
#6 /data/wwwroot/www.k8531.com_2/web_2/api/public/index.php(15): PhalApi->response()
#7 {main}
2017-10-23 17:17:32|DEBUG|succeed to upload file to UCloud_Engine_Local|http://www.k8531.com/api/upload//thumb/20171023/05620942524956792.jpg
2017-10-23 17:17:32|DEBUG|succeed to upload file to UCloud_Engine_Local|http://www.k8531.com/api/upload//thumb/20171023/05620942525651632.jpg
2017-10-23 17:20:22|DEBUG|succeed to upload file to UCloud_Engine_Local|http://www.k8531.com/api/upload//thumb/20171023/05620944222434845.jpg
2017-10-23 17:20:23|DEBUG|succeed to upload file to UCloud_Engine_Local|http://www.k8531.com/api/upload//thumb/20171023/05620944230139381.jpg
2017-10-23 17:41:21|ERROR|Live.createRoom|PDOException: Incorrect integer value: '' for column 'chat_frequency' at row 1 in /data/wwwroot/www.k8531.com_2/web_2/api/PhalApi/NotORM/NotORM/Result.php:240
Stack trace:
#0 /data/wwwroot/www.k8531.com_2/web_2/api/PhalApi/NotORM/NotORM/Result.php(317): NotORM_Result->query('INSERT INTO cmf...', Array)
#1 /data/wwwroot/www.k8531.com_2/web_2/api/PhalApi/NotORM/NotORM/Result.php(334): NotORM_Result->insert_multi(Array)
#2 /data/wwwroot/www.k8531.com_2/web_2/api/Appapi/Model/Live.php(21): NotORM_Result->insert(Array)
#3 /data/wwwroot/www.k8531.com_2/web_2/api/Appapi/Domain/Live.php(11): Model_Live->createRoom(23, Array)
#4 /data/wwwroot/www.k8531.com_2/web_2/api/Appapi/Api/Live.php(525): Domain_Live->createRoom(23, Array)
#5 /data/wwwroot/www.k8531.com_2/web_2/api/PhalApi/PhalApi.php(57): Api_Live->createRoom()
#6 /data/wwwroot/www.k8531.com_2/web_2/api/public/index.php(15): PhalApi->response()
#7 {main}
2017-10-23 17:41:22|ERROR|Live.createRoom|PDOException: Incorrect integer value: '' for column 'chat_frequency' at row 1 in /data/wwwroot/www.k8531.com_2/web_2/api/PhalApi/NotORM/NotORM/Result.php:240
Stack trace:
#0 /data/wwwroot/www.k8531.com_2/web_2/api/PhalApi/NotORM/NotORM/Result.php(317): NotORM_Result->query('INSERT INTO cmf...', Array)
#1 /data/wwwroot/www.k8531.com_2/web_2/api/PhalApi/NotORM/NotORM/Result.php(334): NotORM_Result->insert_multi(Array)
#2 /data/wwwroot/www.k8531.com_2/web_2/api/Appapi/Model/Live.php(21): NotORM_Result->insert(Array)
#3 /data/wwwroot/www.k8531.com_2/web_2/api/Appapi/Domain/Live.php(11): Model_Live->createRoom(23, Array)
#4 /data/wwwroot/www.k8531.com_2/web_2/api/Appapi/Api/Live.php(525): Domain_Live->createRoom(23, Array)
#5 /data/wwwroot/www.k8531.com_2/web_2/api/PhalApi/PhalApi.php(57): Api_Live->createRoom()
#6 /data/wwwroot/www.k8531.com_2/web_2/api/public/index.php(15): PhalApi->response()
#7 {main}
2017-10-23 18:29:17|DEBUG|succeed to upload file to UCloud_Engine_Local|http://www.k8531.com/api/upload//thumb/20171023/05620985570584614.jpg
2017-10-23 18:31:18|DEBUG|succeed to upload file to UCloud_Engine_Local|http://www.k8531.com/api/upload//thumb/20171023/05620986787038616.jpg
2017-10-23 18:57:03|ERROR|Live.createRoom|PDOException: Incorrect integer value: '' for column 'chat_frequency' at row 1 in /data/wwwroot/www.k8531.com_2/web_2/api/PhalApi/NotORM/NotORM/Result.php:240
Stack trace:
#0 /data/wwwroot/www.k8531.com_2/web_2/api/PhalApi/NotORM/NotORM/Result.php(317): NotORM_Result->query('INSERT INTO cmf...', Array)
#1 /data/wwwroot/www.k8531.com_2/web_2/api/PhalApi/NotORM/NotORM/Result.php(334): NotORM_Result->insert_multi(Array)
#2 /data/wwwroot/www.k8531.com_2/web_2/api/Appapi/Model/Live.php(21): NotORM_Result->insert(Array)
#3 /data/wwwroot/www.k8531.com_2/web_2/api/Appapi/Domain/Live.php(11): Model_Live->createRoom(1616, Array)
#4 /data/wwwroot/www.k8531.com_2/web_2/api/Appapi/Api/Live.php(525): Domain_Live->createRoom(1616, Array)
#5 /data/wwwroot/www.k8531.com_2/web_2/api/PhalApi/PhalApi.php(57): Api_Live->createRoom()
#6 /data/wwwroot/www.k8531.com_2/web_2/api/public/index.php(15): PhalApi->response()
#7 {main}
2017-10-23 18:57:03|ERROR|Live.createRoom|PDOException: Incorrect integer value: '' for column 'chat_frequency' at row 1 in /data/wwwroot/www.k8531.com_2/web_2/api/PhalApi/NotORM/NotORM/Result.php:240
Stack trace:
#0 /data/wwwroot/www.k8531.com_2/web_2/api/PhalApi/NotORM/NotORM/Result.php(317): NotORM_Result->query('INSERT INTO cmf...', Array)
#1 /data/wwwroot/www.k8531.com_2/web_2/api/PhalApi/NotORM/NotORM/Result.php(334): NotORM_Result->insert_multi(Array)
#2 /data/wwwroot/www.k8531.com_2/web_2/api/Appapi/Model/Live.php(21): NotORM_Result->insert(Array)
#3 /data/wwwroot/www.k8531.com_2/web_2/api/Appapi/Domain/Live.php(11): Model_Live->createRoom(1616, Array)
#4 /data/wwwroot/www.k8531.com_2/web_2/api/Appapi/Api/Live.php(525): Domain_Live->createRoom(1616, Array)
#5 /data/wwwroot/www.k8531.com_2/web_2/api/PhalApi/PhalApi.php(57): Api_Live->createRoom()
#6 /data/wwwroot/www.k8531.com_2/web_2/api/public/index.php(15): PhalApi->response()
#7 {main}
2017-10-23 18:57:04|ERROR|Live.createRoom|PDOException: Incorrect integer value: '' for column 'chat_frequency' at row 1 in /data/wwwroot/www.k8531.com_2/web_2/api/PhalApi/NotORM/NotORM/Result.php:240
Stack trace:
#0 /data/wwwroot/www.k8531.com_2/web_2/api/PhalApi/NotORM/NotORM/Result.php(317): NotORM_Result->query('INSERT INTO cmf...', Array)
#1 /data/wwwroot/www.k8531.com_2/web_2/api/PhalApi/NotORM/NotORM/Result.php(334): NotORM_Result->insert_multi(Array)
#2 /data/wwwroot/www.k8531.com_2/web_2/api/Appapi/Model/Live.php(21): NotORM_Result->insert(Array)
#3 /data/wwwroot/www.k8531.com_2/web_2/api/Appapi/Domain/Live.php(11): Model_Live->createRoom(1616, Array)
#4 /data/wwwroot/www.k8531.com_2/web_2/api/Appapi/Api/Live.php(525): Domain_Live->createRoom(1616, Array)
#5 /data/wwwroot/www.k8531.com_2/web_2/api/PhalApi/PhalApi.php(57): Api_Live->createRoom()
#6 /data/wwwroot/www.k8531.com_2/web_2/api/public/index.php(15): PhalApi->response()
#7 {main}
