[ 2017-12-14T02:33:45+08:00 ] 172.68.132.47 /wxshare/index.php/share/42FC6619739C94B2E9B285AE8862E0773
ERR: 非法操作:42fc6619739c94b2e9b285ae8862e0773

[ 2017-12-14T02:41:08+08:00 ] 173.245.48.195 /wxshare/index.php/share/12FC6619739C94B2E9B285AE8862E0773
ERR: 非法操作:12fc6619739c94b2e9b285ae8862e0773

[ 2017-12-14T05:04:43+08:00 ] 172.69.22.248 /wxshare/index.php/share/22FC6619739C94B2E9B285AE8862E0773
ERR: 非法操作:22fc6619739c94b2e9b285ae8862e0773

